all/control_all/control_all.sim/sim_1/behav/xsim/waveform.vcd
$date
   Wed Jun  5 14:51:53 2024
$end

$version
  2023.2
  $dumpfile ("waveform.vcd") 
$end

$timescale
  1ps
$end

$scope module tb_main_module $end
$var reg 1 ! clk $end
$var reg 1 " add1hour $end
$var reg 1 # add1min $end
$var reg 1 $ rst $end
$var reg 1 % select $end
$var wire 1 & add1hour_normal $end
$var wire 1 ' add1min_normal $end
$var wire 1 ( add1hour_alarm $end
$var wire 1 ) add1min_alarm $end
$var wire 1 * pause_counter $end
$var wire 1 + clk_1hz $end
$var wire 1 , rst_normal $end
$var wire 1 - rst_alarm $end
$var wire 1 . rst_counter $end
$scope module uut $end
$var wire 1 / clk $end
$var wire 1 0 add1hour $end
$var wire 1 1 add1min $end
$var wire 1 2 rst $end
$var wire 1 3 select $end
$var wire 1 & add1hour_normal $end
$var wire 1 ' add1min_normal $end
$var wire 1 ( add1hour_alarm $end
$var wire 1 ) add1min_alarm $end
$var wire 1 * pause_counter $end
$var wire 1 + clk_1hz $end
$var wire 1 , rst_normal $end
$var wire 1 - rst_alarm $end
$var wire 1 . rst_counter $end
$var wire 1 4 control_out $end
$scope module c1 $end
$var wire 1 / clk $end
$var wire 1 3 select $end
$var reg 2 5 out [1:0] $end
$var wire 1 6 select_btn $end
$scope module risingcontrol $end
$var wire 1 / clk $end
$var wire 1 3 in $end
$var wire 1 6 out $end
$var reg 1 7 ff1 $end
$var reg 1 8 ff2 $end
$upscope $end
$upscope $end
$scope module a1 $end
$var wire 1 / clk $end
$var wire 1 0 add1hour $end
$var wire 1 1 add1min $end
$var wire 2 9 control [1:0] $end
$var reg 1 : out_add1hour_normal $end
$var reg 1 ; out_add1min_normal $end
$var reg 1 < out_add1hour_alarm $end
$var reg 1 = out_add1min_alarm $end
$var reg 1 > pause_counter $end
$var wire 1 ? add1_hour_btn $end
$var wire 1 @ add1_min_btn $end
$var wire 1 A add1hour_btn $end
$var wire 1 B add1min_btn $end
$scope module risingadd1hour $end
$var wire 1 / clk $end
$var wire 1 0 in $end
$var wire 1 A out $end
$var reg 1 C ff1 $end
$var reg 1 D ff2 $end
$upscope $end
$scope module risingadd1min $end
$var wire 1 / clk $end
$var wire 1 1 in $end
$var wire 1 B out $end
$var reg 1 E ff1 $end
$var reg 1 F ff2 $end
$upscope $end
$upscope $end
$scope module r1 $end
$var wire 1 / clk $end
$var wire 1 2 rst $end
$var wire 2 9 control [1:0] $end
$var reg 1 G rst_normal $end
$var reg 1 H rst_alarm $end
$var reg 1 I rst_counter $end
$var wire 1 J rst_btn $end
$scope module rising_reset $end
$var wire 1 / clk $end
$var wire 1 2 in $end
$var wire 1 J out $end
$var reg 1 K ff1 $end
$var reg 1 L ff2 $end
$upscope $end
$upscope $end
$scope module cr1 $end
$var wire 1 / clk $end
$var wire 1 2 rst $end
$var reg 1 M clk_1hz $end
$var reg 26 N counter [25:0] $end
$upscope $end
$upscope $end
$upscope $end
$enddefinitions $end

#0
$dumpvars
0!
0"
0#
0$
0%
x&
x'
x(
x)
x*
0+
x,
x-
x.
0/
00
01
02
03
04
b0 5
x6
x7
x8
bz0 9
x:
x;
x<
x=
x>
z?
z@
xA
xB
xC
xD
xE
xF
xG
xH
xI
xJ
xK
xL
0M
bx N
$end

#5000
1!
0&
0'
0(
0)
0*
0,
0-
0.
1/
06
07
0:
0;
0<
0=
0>
0A
0B
0C
0E
0G
0H
0I
0J
0K

#10000
0!
0/

#15000
1!
1/
08
0D
0F
0L

#20000
0!
0/

#25000
1!
1/

#30000
0!
0/

#35000
1!
1/

#40000
0!
0/

#45000
1!
1/

#50000
0!
0/

#55000
1!
1/

#60000
0!
0/

#65000
1!
1/

#70000
0!
0/

#75000
1!
1/

#80000
0!
0/

#85000
1!
1/

#90000
0!
0/

#95000
1!
1/

#100000
0!
1"
0/
10

#105000
1!
1/
1A
1C

#110000
0!
0"
0/
00

#115000
1!
1*
1/
1>
0A
0C
1D

#120000
0!
0/

#125000
1!
0*
1/
0>
0D

#130000
0!
0/

#135000
1!
1/

#140000
0!
0/

#145000
1!
1/

#150000
0!
0/

#155000
1!
1/

#160000
0!
1$
0/
12
b0 N

#165000
1!
1/
1J
1K

#170000
0!
0$
0/
02

#175000
1!
1.
1/
1I
0J
0K
1L
b1 N

#180000
0!
0/

#185000
1!
0.
1/
0I
0L
b10 N

#190000
0!
1%
0/
13

#195000
1!
1/
16
17
b11 N

#200000
0!
0%
0/
03

#205000
1!
1/
14
b1 5
06
07
18
bz1 9
b100 N

#210000
0!
0/

#215000
1!
1/
08
b101 N

#220000
0!
0/

#225000
1!
1/
b110 N

#230000
0!
0/

#235000
1!
1/
b111 N

#240000
0!
0/

#245000
1!
1/
b1000 N

#250000
0!
1#
0/
11

#255000
1!
1/
1B
1E
b1001 N

#260000
0!
0#
0/
01

#265000
1!
1+
1/
0B
0E
1F
1M
b0 N

#270000
0!
0/

#275000
1!
1/
0F
b1 N

#280000
0!
0/

#285000
1!
1/
b10 N

#290000
0!
0/

#295000
1!
1/
b11 N

#300000
0!
0/

#305000
1!
1/
b100 N

#310000
0!
1%
0/
13

#315000
1!
1/
16
17
b101 N

#320000
0!
1"
0%
0/
10
03

#325000
1!
1/
04
b10 5
06
07
18
bz0 9
1A
1C
b110 N

#330000
0!
0"
0/
00

#335000
1!
1*
1/
08
1>
0A
0C
1D
b111 N

#340000
0!
0/

#345000
1!
0*
1/
0>
0D
b1000 N

#350000
0!
0/

#355000
1!
1/
b1001 N

#360000
0!
0/

#365000
1!
0+
1/
0M
b0 N

#370000
0!
0/

#375000
1!
1/
b1 N

#380000
0!
1$
0/
12
b0 N

#385000
1!
1/
1J
1K

#390000
0!
0$
0/
02

#395000
1!
1.
1/
1I
0J
0K
1L
b1 N

#400000
0!
0/

#405000
1!
0.
1/
0I
0L
b10 N

#410000
0!
0/

#415000
1!
1/
b11 N

#420000
0!
0/

#425000
1!
1/
b100 N

#430000
0!
0/

#435000
1!
1/
b101 N

#440000
0!
0/

#445000
1!
1/
b110 N

#450000
0!
0/

#455000
1!
1/
b111 N

#460000
0!
0/

#465000
1!
1/
b1000 N

#470000
0!
0/

#475000
1!
1/
b1001 N

#480000
0!
0/

#485000
1!
1+
1/
1M
b0 N

#490000
0!
0/

#495000
1!
1/
b1 N

#500000
0!
0/

#505000
1!
1/
b10 N

#510000
0!
0/

#515000
1!
1/
b11 N

#520000
0!
0/

#525000
1!
1/
b100 N

#530000
0!
0/

#535000
1!
1/
b101 N

#540000
0!
0/

#545000
1!
1/
b110 N

#550000
0!
0/

#555000
1!
1/
b111 N

#560000
0!
0/

#565000
1!
1/
b1000 N

#570000
0!
0/

#575000
1!
1/
b1001 N

#580000
0!
0/

#585000
1!
0+
1/
0M
b0 N

#590000
0!
0/

#595000
1!
1/
b1 N

#600000
0!
0/

#605000
1!
1/
b10 N

#610000
0!
0/

#615000
1!
1/
b11 N

#620000
0!
0/

#625000
1!
1/
b100 N

#630000
0!
0/

#635000
1!
1/
b101 N

#640000
0!
0/

#645000
1!
1/
b110 N

#650000
0!
0/

#655000
1!
1/
b111 N

#660000
0!
0/

#665000
1!
1/
b1000 N

#670000
0!
0/

#675000
1!
1/
b1001 N

#680000
0!
0/

#685000
1!
1+
1/
1M
b0 N

#690000
0!
0/

#695000
1!
1/
b1 N

#700000
0!
0/

#705000
1!
1/
b10 N

#710000
0!
0/

#715000
1!
1/
b11 N

#720000
0!
0/

#725000
1!
1/
b100 N

#730000
0!
0/

#735000
1!
1/
b101 N

#740000
0!
0/

#745000
1!
1/
b110 N

#750000
0!
0/

#755000
1!
1/
b111 N

#760000
0!
0/

#765000
1!
1/
b1000 N

#770000
0!
0/

#775000
1!
1/
b1001 N

#780000
0!
0/

#785000
1!
0+
1/
0M
b0 N
